<?xml version="1.0" encoding="utf-8"?>
<!-- Generator: Adobe Illustrator 25.0.1, SVG Export Plug-In . SVG Version: 6.00 Build 0)  -->
<svg version="1.1" id="Warstwa_1" xmlns="http://www.w3.org/2000/svg" xmlns:xlink="http://www.w3.org/1999/xlink" x="0px" y="0px"
	 viewBox="0 0 140 140" style="enable-background:new 0 0 140 140;" xml:space="preserve">
<style type="text/css">
	.st0{fill:#96C120;}
</style>
<g>
	<g>
		<g>
			<g>
				<path class="st0" d="M87.3,48.7C87.3,27.3,70,10,48.7,10S10,27.3,10,48.7c0,9.8,1.8,19.5,3.6,28.9c1.7,9.1,3.5,18.5,3.5,27.6
					c0,13.7,11,24.9,24.6,24.9s24.6-11.2,24.6-24.8c0-1.8-0.2-3.6-0.5-5.2c-1.7-8.4,4.5-18.1,10.3-24C83.3,68.7,87.3,59,87.3,48.7z
					 M58.9,101.4c0.2,1.1,0.4,2.5,0.4,3.8c0,9.8-7.9,17.8-17.6,17.8s-17.6-8-17.6-17.8c0-9.8-1.8-19.5-3.6-28.9
					C18.8,67.2,17,57.8,17,48.7C17,31.2,31.2,17,48.7,17s31.7,14.2,31.7,31.6c0,8.5-3.3,16.4-9.3,22.4
					C63.7,78.4,56.6,90.3,58.9,101.4z"/>
			</g>
		</g>
	</g>
	<g>
		<g>
			<g>
				<path class="st0" d="M53.3,24.5c-15.5-2.8-29.2,9-29.2,24.2c0,8.5,1.6,17.1,3.3,26.2c0.5,2.9,1.1,6,1.6,9
					c1,6.1,6.2,10.5,12.3,10.5c5.9,0,11.1-4.2,12.2-10c0-1.1,4.2-12.4-4.6-23.2c-4.4-5.4-10.9-8.6-17.8-9c-0.1-1.2-0.1-2.4-0.1-3.5
					c0-10.6,9.6-19.4,20.9-17.3c13.8,2.5,19.1,19.7,9.1,29.7l5,5C79.9,52.2,72.8,28,53.3,24.5z M43.6,65.7
					c6.5,7.9,3.1,16.1,3.1,17.3c-0.5,2.5-2.8,4.4-5.3,4.4c-2.7,0-4.9-2-5.4-4.7c-0.5-3.1-1.1-6.1-1.7-9.1c-0.9-4.9-1.8-9.6-2.4-14.2
					C36.4,59.8,40.6,62.1,43.6,65.7z"/>
			</g>
		</g>
	</g>
	<g>
		<g>
			<g>
				<rect x="94.6" y="66.2" class="st0" width="35.4" height="7"/>
			</g>
		</g>
	</g>
	<g>
		<g>
			<g>
				
					<rect x="108.7" y="89.2" transform="matrix(0.4472 -0.8944 0.8944 0.4472 -31.8321 158.344)" class="st0" width="7" height="31.4"/>
			</g>
		</g>
	</g>
	<g>
		<g>
			<g>
				
					<rect x="96.5" y="31.1" transform="matrix(0.8944 -0.4472 0.4472 0.8944 -3.6284 53.8251)" class="st0" width="31.4" height="7"/>
			</g>
		</g>
	</g>
</g>
</svg>
