<?xml version="1.0" encoding="utf-8"?>
<!-- Generator: Adobe Illustrator 25.0.1, SVG Export Plug-In . SVG Version: 6.00 Build 0)  -->
<svg version="1.1" id="Warstwa_1" xmlns="http://www.w3.org/2000/svg" xmlns:xlink="http://www.w3.org/1999/xlink" x="0px" y="0px"
	 viewBox="0 0 140 140" style="enable-background:new 0 0 140 140;" xml:space="preserve">
<style type="text/css">
	.st0{fill:#96C11E;}
</style>
<g>
	<g>
		<g>
			<g>
				<path class="st0" d="M105.4,34.6c-9.5-9.5-22-14.7-35.4-14.7s-26,5.2-35.4,14.7C25.1,44,19.9,56.6,19.9,70s5.2,25.9,14.7,35.4
					s22,14.7,35.4,14.7s25.9-5.2,35.4-14.7s14.7-22,14.7-35.4S114.9,44,105.4,34.6z M101.3,101.3c-8.3,8.3-19.5,12.9-31.3,12.9
					s-22.9-4.6-31.3-12.9S25.8,81.8,25.8,70s4.6-22.9,13-31.3S58.2,25.8,70,25.8s22.9,4.6,31.3,13s12.9,19.4,12.9,31.3
					S109.6,92.9,101.3,101.3z"/>
			</g>
		</g>
	</g>
	<g>
		<g>
			<g>
				<path class="st0" d="M82.4,57.6V40.3H57.6v17.3H40.3v24.7h17.3v17.3h24.7V82.4h17.3V57.6H82.4z M93.8,76.5H76.5v17.3h-13V76.5
					H46.2v-13h17.3V46.2h13v17.3h17.3L93.8,76.5L93.8,76.5z"/>
			</g>
		</g>
	</g>
</g>
</svg>
