<?xml version="1.0" encoding="utf-8"?>
<!-- Generator: Adobe Illustrator 25.0.0, SVG Export Plug-In . SVG Version: 6.00 Build 0)  -->
<svg version="1.1" id="Warstwa_1" xmlns="http://www.w3.org/2000/svg" xmlns:xlink="http://www.w3.org/1999/xlink" x="0px" y="0px"
	 viewBox="0 0 140 140" style="enable-background:new 0 0 140 140;" xml:space="preserve">
<style type="text/css">
	.st0{fill:none;stroke:#96C11E;stroke-width:2;stroke-linejoin:round;stroke-miterlimit:10;}
</style>
<g>
	<g>
		<g>
			<path class="st0" d="M114.97,16.54c-6.69-6.7-17.77-6.7-24.46,0c-3.24,3.24-5.02,7.54-5.02,12.12s1.78,8.88,5.02,12.11
				c0.15,0.15,0.29,0.29,0.42,0.45c-1.47,1.19-2.59,2.77-3.22,4.57h-4c-5.67,0-10.28,4.61-10.28,10.28v24.2
				c-1.12-0.14-2.26-0.21-3.43-0.21c-1.16,0-2.31,0.07-3.43,0.21v-24.2c0-5.67-4.61-10.28-10.28-10.28h-4
				c-0.63-1.81-1.75-3.39-3.22-4.57c0.14-0.15,0.28-0.3,0.42-0.44c3.24-3.24,5.02-7.54,5.02-12.12s-1.78-8.88-5.02-12.11
				c-6.69-6.7-17.77-6.7-24.46,0c-18.02,18.02-18.02,47.33,0,65.35c6.41,6.42,17.5,6.97,24.46,0c3.24-3.24,5.02-7.54,5.02-12.12
				c0-4.58-1.78-8.88-5.02-12.11c-0.15-0.15-0.29-0.29-0.42-0.45c1.47-1.19,2.59-2.77,3.22-4.57h4c1.89,0,3.43,1.54,3.43,3.43v25.97
				c-8.1,3.31-13.71,10.39-13.71,18.57c0,7.96,5.41,15.14,13.71,18.51v5.93c0,1.89,1.53,3.43,3.43,3.43h13.71
				c1.89,0,3.43-1.53,3.43-3.43v-5.93c8.3-3.37,13.71-10.55,13.71-18.51c0-8.19-5.61-15.27-13.71-18.57V56.07
				c0-1.89,1.54-3.43,3.43-3.43h4c0.63,1.81,1.75,3.39,3.22,4.57c-0.14,0.15-0.28,0.3-0.42,0.44c-3.24,3.24-5.02,7.54-5.02,12.12
				c0,4.58,1.78,8.88,5.02,12.11c6.92,6.93,18.02,6.45,24.46,0C132.98,63.87,132.98,34.56,114.97,16.54z M44.64,77.04
				c-4.22,4.22-10.97,3.8-14.76,0c-7.42-7.42-11.51-17.3-11.51-27.83s4.09-20.41,11.51-27.83c4.01-4.02,10.75-4.02,14.76,0
				c1.94,1.94,3.01,4.52,3.01,7.27s-1.07,5.33-3.01,7.27c-1.5,1.5-2.72,3.22-3.63,5.12c-0.45,0.94-0.45,2.04,0,2.98
				c0.45,0.94,1.31,1.62,2.33,1.85c1.55,0.35,2.67,1.75,2.67,3.34s-1.12,3-2.67,3.34c-1.02,0.23-1.88,0.91-2.33,1.85
				c-0.45,0.94-0.46,2.04,0,2.98c0.91,1.9,2.14,3.62,3.64,5.12c1.94,1.94,3.01,4.52,3.01,7.27C47.66,72.52,46.59,75.1,44.64,77.04z
				 M87.13,100.61c0,5.66-4.52,10.8-11.25,12.8c-1.46,0.43-2.45,1.77-2.45,3.29v4.93h-6.85v-4.93c0-1.52-1-2.85-2.45-3.29
				c-6.73-1.99-11.25-7.14-11.25-12.8c0-7.56,7.69-13.71,17.13-13.71C79.45,86.91,87.13,93.06,87.13,100.61z M110.12,77.04
				c-3.74,3.74-10.49,4.28-14.76,0c-1.94-1.94-3.01-4.52-3.01-7.27s1.07-5.33,3.01-7.27c1.5-1.5,2.72-3.22,3.63-5.12
				c0.45-0.94,0.45-2.04,0-2.98c-0.45-0.94-1.31-1.62-2.33-1.85c-1.55-0.35-2.67-1.75-2.67-3.34s1.12-3,2.67-3.34
				c1.02-0.23,1.88-0.91,2.33-1.85c0.45-0.94,0.46-2.04,0-2.98c-0.91-1.9-2.14-3.62-3.64-5.12c-1.94-1.94-3.01-4.52-3.01-7.27
				c0-2.75,1.07-5.33,3.01-7.27c4.01-4.02,10.75-4.02,14.76,0c7.42,7.42,11.51,17.3,11.51,27.83S117.54,69.62,110.12,77.04z"/>
		</g>
	</g>
</g>
</svg>
