<?xml version="1.0" encoding="utf-8"?>
<!-- Generator: Adobe Illustrator 25.0.1, SVG Export Plug-In . SVG Version: 6.00 Build 0)  -->
<svg version="1.1" id="Warstwa_1" xmlns="http://www.w3.org/2000/svg" xmlns:xlink="http://www.w3.org/1999/xlink" x="0px" y="0px"
	 viewBox="0 0 2551.2 1417.3" style="enable-background:new 0 0 2551.2 1417.3;" xml:space="preserve">
<image style="overflow:visible;" width="34" height="28" xlink:href="strzalka1@2.png"  transform="matrix(1 0 0 1 1259 694.3228)">
</image>
</svg>
